{
	"defaultSeverity": "error",
	"extends": [
		"tslint:recommended"
	],
	"jsRules": {},
	"rules": {
		"indent": [true, "tabs", 1],
		"max-line-length": false,
		"ordered-imports": false,
		"member-ordering": false,
		"interface-name": false,
		"object-literal-sort-keys": false
	},
	"rulesDirectory": []
}
